UNIT4B：dplyr資料群組與群組運算
…
1. Group_By

🌻 group_by()
在資料框(tibbles)中標注群組結構(Groups)，
組結構本身不會改變資料，但會影響資料處理管線(%>%)之中後續功能的運作方式。

B

# A tibble: 1,924,665 × 5
   year sex   name          n   prop
  <dbl> <chr> <chr>     <int>  <dbl>
1  1880 F     Mary       7065 0.0724
2  1880 F     Anna       2604 0.0267
3  1880 F     Emma       2003 0.0205
4  1880 F     Elizabeth  1939 0.0199
# ℹ 1,924,661 more rows

group_by(B, year)

# A tibble: 1,924,665 × 5
# Groups:   year [138]
   year sex   name          n   prop
  <dbl> <chr> <chr>     <int>  <dbl>
1  1880 F     Mary       7065 0.0724
2  1880 F     Anna       2604 0.0267
3  1880 F     Emma       2003 0.0205
4  1880 F     Elizabeth  1939 0.0199
# ℹ 1,924,661 more rows
…
#第二段程式會讓資料多一個groups的結構，上面可看到有138個year的group

2. Group Summaries

group_by() 指令後面最常接的函數為
summarise().

group_by(B, year) %>% summarise(
  no_records = n(),               # 各年份的資料筆數
  no.names = n_distinct(name),    # 各年份出現幾種不同的名字
  no.baby = sum(n)                # 各年份的嬰兒數量 
  )

# A tibble: 138 × 4
   year no_records no.names no.baby
  <dbl>      <int>    <int>   <int>
1  1880       2000     1889  201484
2  1881       1935     1830  192696
3  1882       2127     2012  221533
4  1883       2084     1962  216946
# ℹ 134 more rows
…
group_by(B, year, sex) %>% summarise(
  no_records = n(),               # 各年份的資料筆數
  no.names = n_distinct(name),    # 各年份出現幾種不同的名字
  no.baby = sum(n)                # 各年份的嬰兒數量 
  )

`summarise()` has grouped output by 'year'. You can override using the
`.groups` argument.

# A tibble: 276 × 5
# Groups:   year [138]
   year sex   no_records no.names no.baby
  <dbl> <chr>      <int>    <int>   <int>
1  1880 F            942      942   90993
2  1880 M           1058     1058  110491
3  1881 F            938      938   91953
4  1881 M            997      997  100743
# ℹ 272 more rows
…
Group mutate 比 group summarise
更有用，但要它用需要注意比較多的細節！

3.1 純向量運算 (Pure Vector Operations)

🌻
在群組結構之中，mutate()裡面通常只使用會回傳跟群組資料等長向量的運算式

🌷 但是如果運算式中只用到 vector functions
或者是數學運算符號，像這樣子單純的向量運算，並不需要用到群組結構，單純的向量運算在整個資料框執行會比較有效率；單純的向量運算直接在整個資料框做和在組結構裡面做的結果是一樣的，在組結構裡面做純向量運算會拖慢資料管線的運算速度，卻不能得到任何好處。

B %>% group_by(name) %>% mutate(logN=log(n), sqrtN=sqrt(n))

# A tibble: 1,924,665 × 7
# Groups:   name [97,310]
   year sex   name          n   prop  logN sqrtN
  <dbl> <chr> <chr>     <int>  <dbl> <dbl> <dbl>
1  1880 F     Mary       7065 0.0724  8.86  84.1
2  1880 F     Anna       2604 0.0267  7.86  51.0
3  1880 F     Emma       2003 0.0205  7.60  44.8
4  1880 F     Elizabeth  1939 0.0199  7.57  44.0
# ℹ 1,924,661 more rows

這個Group
Mutate會在每一個組結構裡面做一次運算，所以這一段程式總共會執行97,310
次，

但其結果卻和…

B %>% mutate(logN=log(n), sqrtN=sqrt(n))

# A tibble: 1,924,665 × 7
   year sex   name          n   prop  logN sqrtN
  <dbl> <chr> <chr>     <int>  <dbl> <dbl> <dbl>
1  1880 F     Mary       7065 0.0724  8.86  84.1
2  1880 F     Anna       2604 0.0267  7.86  51.0
3  1880 F     Emma       2003 0.0205  7.60  44.8
4  1880 F     Elizabeth  1939 0.0199  7.57  44.0
# ℹ 1,924,661 more rows
…
另一方面，對純向量運算進行group mutate卻是沒有意義的

然而，group
mutate其實是非常有用的，我們將在下面提到它的正確使用方法

3.2 使用Summary功能的向量運算式(Vector Expression)

實際上，在
mutate()中，除了向量函數之外，我們也可以使用向量運算式來定義新欄位，只要運算式所產生的向量長度與Group的長度相同就可以。
例如，我們有時候會想要將數值轉換成比例，例如，我們想知道某個名字在某年受歡迎的程度，我們應該要看的是該名字在當年度的佔比，而不是數量。
這個工作就可以透過一個向量運算式來完成，像在 ….

group_by(B, year) %>% mutate(frac = 100*n/sum(n))

# A tibble: 1,924,665 × 6
# Groups:   year [138]
   year sex   name          n   prop  frac
  <dbl> <chr> <chr>     <int>  <dbl> <dbl>
1  1880 F     Mary       7065 0.0724 3.51 
2  1880 F     Anna       2604 0.0267 1.29 
3  1880 F     Emma       2003 0.0205 0.994
4  1880 F     Elizabeth  1939 0.0199 0.962
# ℹ 1,924,661 more rows
…
rank(v)
產生一個基於v的值排序的索引向量,

lag(v, n) 將向量向下移動 n 個位置
(預設值為n=1)

lead(v, n) 將向量向上移動 n 個位置

舉一個實際的例子，如果我們想調查"Mary"這個名字的流行度隨時間變化的速度，我們可以…

B %>% filter(name=="Mary", sex=="F") %>% 
  arrange(year) %>% 
  mutate(last.prop=lag(prop), dProp=prop-last.prop)

# A tibble: 138 × 7
   year sex   name      n   prop last.prop     dProp
  <dbl> <chr> <chr> <int>  <dbl>     <dbl>     <dbl>
1  1880 F     Mary   7065 0.0724   NA      NA       
2  1881 F     Mary   6919 0.0700    0.0724 -0.00239 
3  1882 F     Mary   8148 0.0704    0.0700  0.000435
4  1883 F     Mary   8012 0.0667    0.0704 -0.00369 
# ℹ 134 more rows

我們可以計算出全部的名字在每一年的變化，然後做個排序 …

B %>% group_by(sex, name) %>% 
  arrange(year) %>%                # 先將資料根據年份升冪排序
  mutate(                          # 然後使用lag來計算
    dProp = 100 * (prop-lag(prop)) # 每年 prop 增加的百分比
    ) %>%                          # 
  arrange(desc(dProp))             # 根據delta降冪排序

# A tibble: 1,924,665 × 6
# Groups:   sex, name [107,973]
   year sex   name        n   prop dProp
  <dbl> <chr> <chr>   <int>  <dbl> <dbl>
1  1947 F     Linda   99686 0.0548 2.22 
2  1935 F     Shirley 42355 0.0390 1.79 
3  1983 F     Ashley  33293 0.0186 1.04 
4  1934 F     Shirley 22841 0.0211 0.742
# ℹ 1,924,661 more rows
…
